ISSS608-VAA - Take Home Exercise 3
…
8.2 Check regression by region

library(broom)
library(dplyr)

regional_models <- world_happiness_data %>%
  group_by(region) %>%
  group_modify(~ tidy(lm(ladder_score ~ economy_score + social_score + 
                          lifeexpectancy_score + freedom_score + 
                          generosity_score + corrperception_score, data = .)))

print(regional_models)

# A tibble: 42 × 6
# Groups:   region [6]
   region   term                 estimate std.error statistic  p.value
   <chr>    <chr>                   <dbl>     <dbl>     <dbl>    <dbl>
 1 Africa   (Intercept)            2.99      0.144     20.7   1.02e-67
 2 Africa   economy_score          0.676     0.102      6.66  7.99e-11
 3 Africa   social_score           0.363     0.0976     3.72  2.25e- 4
 4 Africa   lifeexpectancy_score   0.830     0.168      4.94  1.10e- 6
 5 Africa   freedom_score          0.408     0.186      2.20  2.86e- 2
 6 Africa   generosity_score       1.63      0.394      4.13  4.38e- 5
 7 Africa   corrperception_score  -0.604     0.378     -1.60  1.11e- 1
 8 Americas (Intercept)            2.94      0.197     14.9   2.62e-36
 9 Americas economy_score          0.608     0.0902     6.74  1.11e-10
10 Americas social_score           0.0395    0.130      0.305 7.61e- 1
# ℹ 32 more rows
…
